…
```r
nba = scrape_nba_season_player_stats()
nba$pos = factor(nba$pos, levels = c("PG", "SG", "SF", "PF", "C"))
```


```
## # A tibble: 100 x 93
##    player_team pos     age tm        g    gs    mp    fg   fga fg_percent   x3p
##    <chr>       <fct> <dbl> <chr> <dbl> <dbl> <dbl> <dbl> <dbl>      <dbl> <dbl>
##  1 Álex Abrin~ SG       25 OKC      31     2   588    56   157      0.357    41
##  2 Quincy Acy~ PF       28 PHO      10     0   123     4    18      0.222     2
##  3 Jaylen Ada~ PG       22 ATL      34     1   428    38   110      0.345    25
##  4 Steven Ada~ C        25 OKC      80    80  2669   481   809      0.595     0
##  5 Bam Adebay~ C        21 MIA      82    28  1913   280   486      0.576     3
##  6 Deng Adel ~ SF       21 CLE      19     3   194    11    36      0.306     6
##  7 DeVaughn A~ SG       25 DEN       7     0    22     3    10      0.3       0
##  8 LaMarcus A~ C        33 SAS      81    81  2687   684  1319      0.519    10
##  9 Rawle Alki~ SG       21 CHI      10     1   120    13    39      0.333     3
## 10 Grayson Al~ SG       23 UTA      38     2   416    67   178      0.376    32
## # ... with 90 more rows, and 82 more variables: x3pa <dbl>, x3p_percent <dbl>,
## #   x2p <dbl>, x2pa <dbl>, x2p_percent <dbl>, e_fg_percent <dbl>, ft <dbl>,
## #   fta <dbl>, ft_percent <dbl>, orb <dbl>, drb <dbl>, trb <dbl>, ast <dbl>,
## #   stl <dbl>, blk <dbl>, tov <dbl>, pf <dbl>, pts <dbl>, fg_pm <dbl>,
## #   fga_pm <dbl>, fg_percent_pm <dbl>, x3p_pm <dbl>, x3pa_pm <dbl>,
## #   x3p_percent_pm <dbl>, x2p_pm <dbl>, x2pa_pm <dbl>, x2p_percent_pm <dbl>,
## #   ft_pm <dbl>, fta_pm <dbl>, ft_percent_pm <dbl>, orb_pm <dbl>, drb_pm <dbl>,
## #   trb_pm <dbl>, ast_pm <dbl>, stl_pm <dbl>, blk_pm <dbl>, tov_pm <dbl>,
## #   pf_pm <dbl>, pts_pm <dbl>, fg_pp <dbl>, fga_pp <dbl>, fg_percent_pp <dbl>,
…
