…
```r
some_wide_data = gen_wide_data()
```


```r
some_wide_data
```

```
## # A tibble: 100 x 201
##      y[,1]     x1     x2      x3       x4      x5      x6     x7     x8     x9
##      <dbl>  <dbl>  <dbl>   <dbl>    <dbl>   <dbl>   <dbl>  <dbl>  <dbl>  <dbl>
##  1  5.00    1.75  -0.449  1.09   -0.981    0.217  -0.390   1.13   1.83  -0.989
##  2 -7.81   -0.792 -0.659 -0.823  -0.275    0.281   0.931   0.680  0.354  0.628
##  3  4.29    0.648  0.533 -0.415   1.19    -0.451   0.914   0.953  0.527  0.529
##  4  7.22    1.06   0.913  0.0341  0.793   -0.522   0.680  -0.124  1.74   0.955
##  5 -2.09   -0.603 -0.594 -0.141   0.897    0.162  -0.0729 -0.550  2.81   1.71 
##  6 -6.24    0.461 -0.996 -1.25   -0.386   -0.175  -0.153  -0.914  0.230  0.624
##  7 10.2     1.45   1.60   0.426   0.0269   0.318   0.0255 -2.15   0.669 -0.178
##  8  2.42    0.576  0.757  0.537  -0.828   -0.348  -0.640   2.25   0.942  1.10 
##  9 -0.0202 -0.287  0.276 -0.550   0.537   -0.0493  1.42   -0.558 -0.283  0.489
## 10  1.49    0.563 -0.264  0.0107  0.00393 -0.367   1.75   -0.893  1.75   1.08 
## # ... with 90 more rows, and 191 more variables: x10 <dbl>, x11 <dbl>,
## #   x12 <dbl>, x13 <dbl>, x14 <dbl>, x15 <dbl>, x16 <dbl>, x17 <dbl>,
## #   x18 <dbl>, x19 <dbl>, x20 <dbl>, x21 <dbl>, x22 <dbl>, x23 <dbl>,
## #   x24 <dbl>, x25 <dbl>, x26 <dbl>, x27 <dbl>, x28 <dbl>, x29 <dbl>,
## #   x30 <dbl>, x31 <dbl>, x32 <dbl>, x33 <dbl>, x34 <dbl>, x35 <dbl>,
## #   x36 <dbl>, x37 <dbl>, x38 <dbl>, x39 <dbl>, x40 <dbl>, x41 <dbl>,
## #   x42 <dbl>, x43 <dbl>, x44 <dbl>, x45 <dbl>, x46 <dbl>, x47 <dbl>,
## #   x48 <dbl>, x49 <dbl>, x50 <dbl>, x51 <dbl>, x52 <dbl>, x53 <dbl>,
## #   x54 <dbl>, x55 <dbl>, x56 <dbl>, x57 <dbl>, x58 <dbl>, x59 <dbl>,
…
\begin{center}\includegraphics{03-07-regularization_files/figure-latex/unnamed-chunk-24-1} \end{center}



```r
tidy(mod_ridge)
```

```
## # A tibble: 100 x 6
##    lambda estimate std.error conf.low conf.high nzero
##     <dbl>    <dbl>     <dbl>    <dbl>     <dbl> <int>
##  1  3543.     45.1      4.01     41.1      49.1   200
##  2  3382.     45.1      4.02     41.1      49.1   200
##  3  3228.     45.1      4.01     41.1      49.1   200
##  4  3081.     45.0      3.99     41.0      49.0   200
##  5  2941.     45.0      3.96     41.0      48.9   200
##  6  2808.     45.0      3.96     41.0      48.9   200
##  7  2680.     45.0      3.95     41.0      48.9   200
##  8  2558.     44.9      3.95     41.0      48.9   200
##  9  2442.     44.9      3.95     41.0      48.9   200
## 10  2331.     44.9      3.95     41.0      48.9   200
## # ... with 90 more rows
```
…
```r
library("broom")
```


```r
tidy(bstn_lasso)
```

```
## # A tibble: 83 x 6
##    lambda estimate std.error conf.low conf.high nzero
##     <dbl>    <dbl>     <dbl>    <dbl>     <dbl> <int>
##  1   6.78     84.3      8.10     76.2      92.4     0
##  2   6.18     77.2      7.94     69.2      85.1     1
##  3   5.63     70.4      7.51     62.9      77.9     2
##  4   5.13     64.0      7.06     57.0      71.1     2
##  5   4.67     58.5      6.59     51.9      65.0     2
##  6   4.26     53.8      6.17     47.6      60.0     2
##  7   3.88     49.9      5.82     44.1      55.8     2
##  8   3.53     46.7      5.53     41.2      52.3     2
##  9   3.22     44.1      5.28     38.8      49.3     2
## 10   2.93     41.6      5.08     36.5      46.7     3
## # ... with 73 more rows
```
…
