…
```r
aq = airquality %>% 
  filter(!is.na(Ozone))
```


```r
aq
```

```
## # A tibble: 116 x 6
##    Ozone Solar.R  Wind  Temp Month   Day
##    <int>   <int> <dbl> <int> <int> <int>
##  1    41     190   7.4    67     5     1
##  2    36     118   8      72     5     2
##  3    12     149  12.6    74     5     3
##  4    18     313  11.5    62     5     4
##  5    28      NA  14.9    66     5     6
##  6    23     299   8.6    65     5     7
##  7    19      99  13.8    59     5     8
##  8     8      19  20.1    61     5     9
##  9     7      NA   6.9    74     5    11
## 10    16     256   9.7    69     5    12
## # ... with 106 more rows
```
…
```r
na.omit(aq)
```

```
## # A tibble: 111 x 6
##    Ozone Solar.R  Wind  Temp Month   Day
##    <int>   <int> <dbl> <int> <int> <int>
##  1    41     190   7.4    67     5     1
##  2    36     118   8      72     5     2
##  3    12     149  12.6    74     5     3
##  4    18     313  11.5    62     5     4
##  5    23     299   8.6    65     5     7
##  6    19      99  13.8    59     5     8
##  7     8      19  20.1    61     5     9
##  8    16     256   9.7    69     5    12
##  9    11     290   9.2    66     5    13
## 10    14     274  10.9    68     5    14
## # ... with 101 more rows
```
…
```r
data("airquality")
airquality = as_tibble(airquality)
```


```r
airquality
```

```
## # A tibble: 153 x 6
##    Ozone Solar.R  Wind  Temp Month   Day
##    <int>   <int> <dbl> <int> <int> <int>
##  1    41     190   7.4    67     5     1
##  2    36     118   8      72     5     2
##  3    12     149  12.6    74     5     3
##  4    18     313  11.5    62     5     4
##  5    NA      NA  14.3    56     5     5
##  6    28      NA  14.9    66     5     6
##  7    23     299   8.6    65     5     7
##  8    19      99  13.8    59     5     8
##  9     8      19  20.1    61     5     9
## 10    NA     194   8.6    69     5    10
## # ... with 143 more rows
```
…
```r
aq
```

```
## # A tibble: 116 x 6
##    Ozone Solar.R  Wind  Temp Month   Day
##    <int>   <int> <dbl> <int> <int> <int>
##  1    41     190   7.4    67     5     1
##  2    36     118   8      72     5     2
##  3    12     149  12.6    74     5     3
##  4    18     313  11.5    62     5     4
##  5    28      NA  14.9    66     5     6
##  6    23     299   8.6    65     5     7
##  7    19      99  13.8    59     5     8
##  8     8      19  20.1    61     5     9
##  9     7      NA   6.9    74     5    11
## 10    16     256   9.7    69     5    12
## # ... with 106 more rows
```
…
```r
# error due to lack of factor level
# predict(mod_fct, data.frame(Month = 12)) 
```


```r
aq$Month[3:7] = NA
aq$Month = as.factor(aq$Month)
aq
```

```
## # A tibble: 116 x 6
##    Ozone Solar.R  Wind  Temp Month   Day
##    <int>   <int> <dbl> <int> <fct> <int>
##  1    41     190   7.4    67 5         1
##  2    36     118   8      72 5         2
##  3    12     149  12.6    74 <NA>      3
##  4    18     313  11.5    62 <NA>      4
##  5    28      NA  14.9    66 <NA>      6
##  6    23     299   8.6    65 <NA>      7
##  7    19      99  13.8    59 <NA>      8
##  8     8      19  20.1    61 5         9
##  9     7      NA   6.9    74 5        11
## 10    16     256   9.7    69 5        12
## # ... with 106 more rows
```
…
