Chapter 15 Ensembles | Basics of Statistical Learning
…
##    single.1      bagged 
## -0.02487810  0.03302126

apply(sim_results, 1, var)

##  single.1    bagged 
## 1.0147130 0.3356579

15.3 Random Forest

set.seed(42)
two_class_data = as_tibble(caret::twoClassSim(n = 1250, noiseVars = 20))
two_class_data

## # A tibble: 1,250 x 36
##    TwoFactor1 TwoFactor2 Linear01 Linear02 Linear03 Linear04 Linear05
##         <dbl>      <dbl>    <dbl>    <dbl>    <dbl>    <dbl>    <dbl>
##  1      2.68       0.843  0.617      0.761   0.0712   -0.368    0.294
##  2     -0.496     -0.955 -0.00454   -0.172   0.970    -1.28    -0.404
##  3     -0.577      1.51  -0.0913    -0.265   0.310    -1.98    -2.18 
##  4      1.06       0.567  0.400     -0.424  -0.140    -1.24     0.198
##  5      1.21      -0.171  0.589      0.689  -0.326    -0.541    1.92 
##  6     -0.161     -0.112 -0.0169     1.05   -0.119    -0.219   -0.928
##  7      1.20       2.68   0.419     -2.19    0.894    -1.30    -0.329
##  8      0.812     -1.06   0.801     -0.503   0.211     1.45     0.952
##  9      2.74       2.44   0.680      0.880  -0.489    -0.197    1.64 
## 10     -0.357      0.196  1.31       1.55   -0.220     0.891   -0.764
## # … with 1,240 more rows, and 29 more variables: Linear06 <dbl>,
## #   Linear07 <dbl>, Linear08 <dbl>, Linear09 <dbl>, Linear10 <dbl>,
## #   Nonlinear1 <dbl>, Nonlinear2 <dbl>, Nonlinear3 <dbl>, Noise01 <dbl>,
## #   Noise02 <dbl>, Noise03 <dbl>, Noise04 <dbl>, Noise05 <dbl>,
## #   Noise06 <dbl>, Noise07 <dbl>, Noise08 <dbl>, Noise09 <dbl>,
## #   Noise10 <dbl>, Noise11 <dbl>, Noise12 <dbl>, Noise13 <dbl>,
## #   Noise14 <dbl>, Noise15 <dbl>, Noise16 <dbl>, Noise17 <dbl>,
## #   Noise18 <dbl>, Noise19 <dbl>, Noise20 <dbl>, Class <fct>
…
