Chapter 1 Introduction | Basics of Statistical Learning
…
TODO: https://en.wikipedia.org/wiki/Powerlifting

1.1.2 Data

TODO: Why readr::col_factor() and not just col_factor()?

TODO: Characters should be character and “categories” should be factors.

TODO: Is na.omit() actually a good idea?

pl = read_csv("data/pl.csv", col_types = cols(Sex = readr::col_factor()))

pl

## # A tibble: 3,604 x 8
##    Name             Sex   Bodyweight   Age Squat Bench Deadlift Total
##    <chr>            <fct>      <dbl> <dbl> <dbl> <dbl>    <dbl> <dbl>
##  1 Ariel Stier      F           60      32 128.   72.5     150   350 
##  2 Nicole Bueno     F           60      26 110    60       135   305 
##  3 Lisa Peterson    F           67.5    28 118.   67.5     138.  322.
##  4 Shelby Bandula   F           67.5    26  92.5  67.5     140   300 
##  5 Lisa Lindhorst   F           67.5    28  92.5  62.5     132.  288.
##  6 Laura Burnett    F           67.5    30  90    45       108.  242.
##  7 Suzette Bradley  F           75      38 125    75       158.  358.
##  8 Norma Romero     F           75      20  92.5  42.5     125   260 
##  9 Georgia Andrews  F           82.5    29 108.   52.5     120   280 
## 10 Christal Bundang F           90      30 100    55       125   280 
## # … with 3,594 more rows
…
1.3.2 Data

https://www.basketball-reference.com/leagues/NBA_2019_totals.html

https://www.basketball-reference.com/leagues/NBA_2019_per_minute.html

https://www.basketball-reference.com/leagues/NBA_2019_per_poss.html

https://www.basketball-reference.com/leagues/NBA_2019_advanced.html

nba = scrape_nba_season_player_stats()
nba$pos = factor(nba$pos, levels = c("PG", "SG", "SF", "PF", "C"))

## # A tibble: 100 x 93
##    player_team pos     age tm        g    gs    mp    fg   fga fg_percent
##    <chr>       <fct> <dbl> <chr> <dbl> <dbl> <dbl> <dbl> <dbl>      <dbl>
##  1 Álex Abrin… SG       25 OKC      31     2   588    56   157      0.357
##  2 Quincy Acy… PF       28 PHO      10     0   123     4    18      0.222
##  3 Jaylen Ada… PG       22 ATL      34     1   428    38   110      0.345
##  4 Steven Ada… C        25 OKC      80    80  2669   481   809      0.595
##  5 Bam Adebay… C        21 MIA      82    28  1913   280   486      0.576
##  6 Deng Adel … SF       21 CLE      19     3   194    11    36      0.306
##  7 DeVaughn A… SG       25 DEN       7     0    22     3    10      0.3  
##  8 LaMarcus A… C        33 SAS      81    81  2687   684  1319      0.519
##  9 Rawle Alki… SG       21 CHI      10     1   120    13    39      0.333
## 10 Grayson Al… SG       23 UTA      38     2   416    67   178      0.376
## # … with 90 more rows, and 83 more variables: x3p <dbl>, x3pa <dbl>,
## #   x3p_percent <dbl>, x2p <dbl>, x2pa <dbl>, x2p_percent <dbl>,
## #   e_fg_percent <dbl>, ft <dbl>, fta <dbl>, ft_percent <dbl>, orb <dbl>,
## #   drb <dbl>, trb <dbl>, ast <dbl>, stl <dbl>, blk <dbl>, tov <dbl>,
## #   pf <dbl>, pts <dbl>, fg_pm <dbl>, fga_pm <dbl>, fg_percent_pm <dbl>,
## #   x3p_pm <dbl>, x3pa_pm <dbl>, x3p_percent_pm <dbl>, x2p_pm <dbl>,
## #   x2pa_pm <dbl>, x2p_percent_pm <dbl>, ft_pm <dbl>, fta_pm <dbl>,
## #   ft_percent_pm <dbl>, orb_pm <dbl>, drb_pm <dbl>, trb_pm <dbl>,
## #   ast_pm <dbl>, stl_pm <dbl>, blk_pm <dbl>, tov_pm <dbl>, pf_pm <dbl>,
…
