Chapter 7 Nonparametric Classification | Basics of Statistical Learning
…
# tst-trn split data
trn_idx = sample(nrow(sim_data), size = 0.8 * nrow(sim_data))
trn = sim_data[trn_idx, ]
tst = sim_data[-trn_idx, ]

# est-val split data
est_idx = sample(nrow(trn), size = 0.8 * nrow(trn))
est = trn[est_idx, ]
val = trn[-est_idx, ]

# check data
trn

## # A tibble: 800 x 3
##       x.1    x.2 classes
##     <dbl>  <dbl> <fct>  
##  1 -0.929  2.32  1      
##  2 -3.25   2.27  2      
##  3 -0.767  1.06  2      
##  4  3.42   3.10  1      
##  5  2.37   0.786 3      
##  6  3.90   1.54  1      
##  7 -0.373 -1.89  2      
##  8 -1.10  -1.58  2      
##  9  0.609  1.29  1      
## 10  2.31   1.49  1      
## # … with 790 more rows
…
TODO: add training misclass

TODO: expand possible k value

TODO: re-fit to training data, report test misclass

7.2 Example: Decision Tree on Penguin Data

# trees and penguins ###########################################################

# check data
penguins

## # A tibble: 344 x 8
##    species island    bill_length_mm bill_depth_mm flipper_length_mm body_mass_g
##    <fct>   <fct>              <dbl>         <dbl>             <int>       <int>
##  1 Adelie  Torgersen           39.1          18.7               181        3750
##  2 Adelie  Torgersen           39.5          17.4               186        3800
##  3 Adelie  Torgersen           40.3          18                 195        3250
##  4 Adelie  Torgersen           NA            NA                  NA          NA
##  5 Adelie  Torgersen           36.7          19.3               193        3450
##  6 Adelie  Torgersen           39.3          20.6               190        3650
##  7 Adelie  Torgersen           38.9          17.8               181        3625
##  8 Adelie  Torgersen           39.2          19.6               195        4675
##  9 Adelie  Torgersen           34.1          18.1               193        3475
## 10 Adelie  Torgersen           42            20.2               190        4250
## # … with 334 more rows, and 2 more variables: sex <fct>, year <int>
…
