Chapter 16 Practical Issues | Basics of Statistical Learning
…
# generate train and test sets
set.seed(42)
trn = gen_reg_data(beta_1 = 10, beta_2 = 0.001)
tst = gen_reg_data(beta_1 = 10, beta_2 = 0.001)

trn %>% 
  mutate(x1_scaled = scale(x_1),
         x2_scaled = scale(x_2))

## # A tibble: 250 x 5
##      x_1   x_2     y x1_scaled[,1] x2_scaled[,1]
##    <dbl> <dbl> <dbl>         <dbl>         <dbl>
##  1 0.915 334.   8.39        1.39          -0.462
##  2 0.937 188.   9.61        1.47          -0.958
##  3 0.286 270.   1.93       -0.765         -0.681
##  4 0.830 531.   9.03        1.10           0.207
##  5 0.642  21.5  7.74        0.455         -1.53 
##  6 0.519 799.   4.96        0.0340         1.12 
##  7 0.737 110.   6.74        0.780         -1.22 
##  8 0.135 540.   1.93       -1.29           0.238
##  9 0.657 571.   6.12        0.507          0.345
## 10 0.705 619.   7.29        0.672          0.507
## # … with 240 more rows

# create scaled datasets
scale_trn = preProcess(trn[, 1:2])
trn_scaled = predict(scale_trn, trn)
tst_scaled = predict(scale_trn, tst)

trn_scaled

## # A tibble: 250 x 3
##        x_1    x_2     y
##      <dbl>  <dbl> <dbl>
##  1  1.39   -0.462  8.39
##  2  1.47   -0.958  9.61
##  3 -0.765  -0.681  1.93
##  4  1.10    0.207  9.03
##  5  0.455  -1.53   7.74
##  6  0.0340  1.12   4.96
##  7  0.780  -1.22   6.74
##  8 -1.29    0.238  1.93
##  9  0.507   0.345  6.12
## 10  0.672   0.507  7.29
## # … with 240 more rows
…
