Chapter 2 Regression: Powerlifting | Basics of Statistical Learning
…
TODO: https://en.wikipedia.org/wiki/Powerlifting

2.2 Data

TODO: Why readr::col_factor() and not just col_factor()?

TODO: Characters should be character and “categories” should be factors.

TODO: Is na.omit() actually a good idea?

pl = read_csv("data/pl.csv", col_types = cols(Sex = readr::col_factor()))

pl

## # A tibble: 3,604 x 8
##    Name             Sex   Bodyweight   Age Squat Bench Deadlift Total
##    <chr>            <fct>      <dbl> <dbl> <dbl> <dbl>    <dbl> <dbl>
##  1 Ariel Stier      F           60      32 128.   72.5     150   350 
##  2 Nicole Bueno     F           60      26 110    60       135   305 
##  3 Lisa Peterson    F           67.5    28 118.   67.5     138.  322.
##  4 Shelby Bandula   F           67.5    26  92.5  67.5     140   300 
##  5 Lisa Lindhorst   F           67.5    28  92.5  62.5     132.  288.
##  6 Laura Burnett    F           67.5    30  90    45       108.  242.
##  7 Suzette Bradley  F           75      38 125    75       158.  358.
##  8 Norma Romero     F           75      20  92.5  42.5     125   260 
##  9 Georgia Andrews  F           82.5    29 108.   52.5     120   280 
## 10 Christal Bundang F           90      30 100    55       125   280 
## # … with 3,594 more rows
…
