Chapter 12 Regularization | Basics of Statistical Learning
…
## [1] 116127.2

# CV-MSE using 1-SE rule lambda

12.3 broom

Sometimes, the output from glmnet() can be overwhelming. The broom package can help with that.

library(broom)
# the output from the commented line would be immense
# fit_lasso_cv
tidy(fit_lasso_cv)

## # A tibble: 80 x 6
##    lambda estimate std.error conf.low conf.high nzero
##     <dbl>    <dbl>     <dbl>    <dbl>     <dbl> <int>
##  1   255.  204171.    39048.  165123.   243219.     0
##  2   233.  195844.    38973.  156870.   234817.     1
##  3   212.  186963.    37751.  149212.   224714.     2
##  4   193.  179622.    36640.  142982.   216262.     2
##  5   176.  172688.    35736.  136952.   208424.     3
##  6   160.  165552.    35177.  130376.   200729.     4
##  7   146.  159228.    34767.  124461.   193995.     4
##  8   133.  153509.    34383.  119126.   187892.     4
##  9   121.  148572.    34027.  114545.   182599.     4
## 10   111.  144423.    33723.  110699.   178146.     4
## # … with 70 more rows
…
