…
## `broom`

Sometimes, the output from `glmnet()` can be overwhelming. The `broom` package can help with that.


```r
library(broom)
# the output from the commented line would be immense
# fit_lasso_cv
tidy(fit_lasso_cv)
```

```
## # A tibble: 80 x 6
##    lambda estimate std.error conf.low conf.high nzero
##     <dbl>    <dbl>     <dbl>    <dbl>     <dbl> <int>
##  1   255.  202955.    30760.  172195.   233715.     0
##  2   233.  193661.    30072.  163589.   223733.     1
##  3   212.  184304.    28994.  155310.   213298.     2
##  4   193.  176691.    28100.  148591.   204791.     2
##  5   176.  169649.    27329.  142321.   196978.     3
##  6   160.  162260.    26700.  135559.   188960.     4
##  7   146.  155460.    26161.  129298.   181621.     4
##  8   133.  149707.    25723.  123985.   175430.     4
##  9   121.  144915.    25391.  119524.   170305.     4
## 10   111.  140934.    25122.  115812.   166056.     4
## # … with 70 more rows
```
…
