Chapter 7 Resampling | Basics of Statistical Learning
…
\[
X_j \sim N(\mu = 0, \sigma^2 = 1)
\]

We simulate \(n = 100\) observations from this data generating process. Notice that the way we’ve defined this process, none of the \(X_j\) are related to \(Y\).

set.seed(42)
n = 200
p = 10000
x = replicate(p, rnorm(n))
y = c(rbinom(n = n, size = 1, prob = 0.5))
full_data = as_tibble(data.frame(y, x))
full_data

## # A tibble: 200 x 10,001
##        y      X1     X2       X3     X4     X5     X6      X7      X8
##    <int>   <dbl>  <dbl>    <dbl>  <dbl>  <dbl>  <dbl>   <dbl>   <dbl>
##  1     1  1.37   -2.00   1.33    -0.248  0.689  2.33  -0.747   0.877 
##  2     1 -0.565   0.334 -0.869    0.422  0.725  0.524  0.0366 -1.77  
##  3     1  0.363   1.17   0.0555   0.988  0.217  0.971  0.323  -0.0457
##  4     0  0.633   2.06   0.0491   0.836 -0.202  0.377  0.380  -0.395 
##  5     0  0.404  -1.38  -0.578   -0.661 -1.37  -0.996  0.877  -0.128 
##  6     1 -0.106  -1.15  -0.999    1.56  -0.309 -0.597  0.933   1.10  
##  7     1  1.51   -0.706 -0.00243 -1.62  -0.453  0.165 -2.43   -1.26  
##  8     0 -0.0947 -1.05   0.656    0.864  0.663 -2.93   1.73   -0.265 
##  9     1  2.02   -0.646  1.48    -0.512  1.31  -0.848  0.456   2.55  
## 10     0 -0.0627 -0.185 -1.91    -1.92   0.501  0.799 -0.570  -1.48  
## # … with 190 more rows, and 9,992 more variables: X9 <dbl>, X10 <dbl>,
## #   X11 <dbl>, X12 <dbl>, X13 <dbl>, X14 <dbl>, X15 <dbl>, X16 <dbl>,
## #   X17 <dbl>, X18 <dbl>, X19 <dbl>, X20 <dbl>, X21 <dbl>, X22 <dbl>,
## #   X23 <dbl>, X24 <dbl>, X25 <dbl>, X26 <dbl>, X27 <dbl>, X28 <dbl>,
## #   X29 <dbl>, X30 <dbl>, X31 <dbl>, X32 <dbl>, X33 <dbl>, X34 <dbl>,
## #   X35 <dbl>, X36 <dbl>, X37 <dbl>, X38 <dbl>, X39 <dbl>, X40 <dbl>,
## #   X41 <dbl>, X42 <dbl>, X43 <dbl>, X44 <dbl>, X45 <dbl>, X46 <dbl>,
## #   X47 <dbl>, X48 <dbl>, X49 <dbl>, X50 <dbl>, X51 <dbl>, X52 <dbl>,
## #   X53 <dbl>, X54 <dbl>, X55 <dbl>, X56 <dbl>, X57 <dbl>, X58 <dbl>,
…
